[gd_scene load_steps=2 format=2]

[ext_resource path="res://world/areas/SetTileActuator.gd" type="Script" id=1]

[node name="SetTileActuator" type="Node"]
script = ExtResource( 1 )
target_positions = [ Vector2( 9, 0 ), Vector2( 9, -1 ), Vector2( 9, -2 ) ]
