[gd_scene load_steps=13 format=2]

[ext_resource path="res://fonts/Roboto-Regular.ttf" type="DynamicFontData" id=1]
[ext_resource path="res://world/Level.gd" type="Script" id=2]
[ext_resource path="res://world/Box.gd" type="Script" id=3]
[ext_resource path="res://world/media/tileset.tres" type="TileSet" id=4]
[ext_resource path="res://world/areas/Button.tscn" type="PackedScene" id=5]
[ext_resource path="res://world/media/box.png" type="Texture" id=6]
[ext_resource path="res://world/areas/SetTileActuator.tscn" type="PackedScene" id=8]

[sub_resource type="DynamicFont" id=5]
size = 9
font_data = ExtResource( 1 )

[sub_resource type="PhysicsMaterial" id=1]
friction = 0.5

[sub_resource type="RectangleShape2D" id=2]
extents = Vector2( 9, 9 )

[sub_resource type="RectangleShape2D" id=3]
extents = Vector2( 10, 17.9753 )

[sub_resource type="ParticlesMaterial" id=4]
emission_shape = 1
emission_sphere_radius = 4.2
flag_disable_z = true
direction = Vector3( 0, -1, 0 )
spread = 83.25
gravity = Vector3( 0, 70, 0 )
initial_velocity = 60.0
orbit_velocity = 0.0
orbit_velocity_random = 0.0
color = Color( 1, 0.12549, 0.12549, 1 )
hue_variation = 0.09
hue_variation_random = 1.0

[node name="Level" type="Node"]
script = ExtResource( 2 )

[node name="NinePatchRect" type="ColorRect" parent="."]
margin_left = -54.0
margin_top = -45.0
margin_bottom = -15.0
color = Color( 0.796078, 0.505882, 0.368627, 1 )
__meta__ = {
"_edit_use_anchors_": false
}

[node name="Label" type="Label" parent="NinePatchRect"]
anchor_right = 1.0
anchor_bottom = 1.0
custom_fonts/font = SubResource( 5 )
text = "Press E to
pull the box"
align = 1
valign = 1
__meta__ = {
"_edit_use_anchors_": false
}

[node name="BloodParticles" type="CPUParticles2D" parent="."]
position = Vector2( 64.1764, 20.2272 )
emitting = false
amount = 30
one_shot = true
explosiveness = 0.91
emission_shape = 2
emission_rect_extents = Vector2( 5, 10 )
direction = Vector2( 0, -1 )
spread = 132.19
gravity = Vector2( 0, 300 )
initial_velocity = 40.0
scale_amount = 5.0
color = Color( 0.411765, 0, 0, 1 )

[node name="BoxParticles" type="CPUParticles2D" parent="."]
emitting = false
amount = 30
one_shot = true
explosiveness = 0.91
emission_shape = 2
emission_rect_extents = Vector2( 5, 10 )
direction = Vector2( 0, -1 )
spread = 132.19
gravity = Vector2( 0, 300 )
initial_velocity = 40.0
scale_amount = 5.0
color = Color( 0.670588, 0.380392, 0.345098, 1 )

[node name="TileMap" type="TileMap" parent="."]
tile_set = ExtResource( 4 )
cell_size = Vector2( 18, 18 )
format = 1
tile_data = PoolIntArray( -196613, 11, 0, -196612, 11, 0, -196611, 11, 0, -196610, 11, 0, -196609, 11, 0, -262144, 11, 0, -262143, 11, 0, -262142, 11, 0, -262141, 11, 0, -262140, 11, 0, -262139, 11, 0, -262138, 11, 0, -262137, 11, 0, -262136, 11, 0, -262135, 11, 0, -262134, 11, 0, -262133, 11, 0, -262132, 11, 0, -262131, 11, 0, -131077, 11, 0, -196599, 11, 0, -196595, 11, 0, -65541, 11, 0, -131063, 12, 0, -131059, 11, 0, -5, 11, 0, -65527, 12, 0, -65525, 14, 0, -65523, 11, 0, 65531, 11, 0, 1, 16, 0, 5, 17, 0, 9, 12, 0, 11, 15, 0, 13, 11, 0, 131064, 4, 1, 131065, 4, 2, 131066, 4, 2, 131067, 4, 2, 131068, 4, 2, 131069, 4, 2, 131070, 4, 2, 131071, 4, 2, 65536, 4, 2, 65537, 4, 2, 65538, 4, 2, 65539, 4, 2, 65540, 4, 2, 65541, 4, 2, 65542, 4, 2, 65543, 4, 2, 65544, 4, 2, 65545, 4, 2, 65546, 4, 2, 65547, 4, 2, 65548, 4, 2, 65549, 4, 2, 65550, 4, 2, 65551, 4, 2, 65552, 4, 3, 196600, 5, 0, 196601, 5, 1, 196602, 5, 1, 196603, 5, 1, 196604, 5, 1, 196605, 5, 1, 196606, 5, 1, 196607, 5, 1, 131072, 5, 1, 131073, 5, 1, 131074, 5, 1, 131075, 5, 1, 131076, 5, 1, 131077, 5, 1, 131078, 5, 1, 131079, 5, 1, 131080, 5, 1, 131081, 5, 1, 131082, 5, 1, 131083, 5, 1, 131084, 5, 1, 131085, 5, 1, 131086, 5, 1, 131087, 5, 1, 131088, 5, 2, 262136, 5, 0, 262137, 5, 1, 262138, 5, 1, 262139, 5, 1, 262140, 5, 1, 262141, 5, 1, 262142, 5, 1, 262143, 5, 1, 196608, 5, 1, 196609, 5, 1, 196610, 5, 1, 196611, 5, 1, 196612, 5, 1, 196613, 5, 1, 196614, 5, 1, 196615, 5, 1, 196616, 5, 1, 196617, 5, 1, 196618, 5, 1, 196619, 5, 1, 196620, 5, 1, 196621, 5, 1, 196622, 5, 1, 196623, 5, 1, 196624, 5, 2, 327672, 5, 0, 327673, 5, 1, 327674, 5, 1, 327675, 5, 1, 327676, 5, 1, 327677, 5, 1, 327678, 5, 1, 327679, 5, 1, 262144, 5, 1, 262145, 5, 1, 262146, 5, 1, 262147, 5, 1, 262148, 5, 1, 262149, 5, 1, 262150, 5, 1, 262151, 5, 1, 262152, 5, 1, 262153, 5, 1, 262154, 5, 1, 262155, 5, 1, 262156, 5, 1, 262157, 5, 1, 262158, 5, 1, 262159, 5, 1, 262160, 5, 2, 393208, 5, 0, 393209, 5, 1, 393210, 5, 1, 393211, 5, 1, 393212, 5, 1, 393213, 5, 1, 393214, 5, 1, 393215, 5, 1, 327680, 5, 1, 327681, 5, 1, 327682, 5, 1, 327683, 5, 1, 327684, 5, 1, 327685, 5, 1, 327686, 5, 1, 327687, 5, 1, 327688, 5, 1, 327689, 5, 1, 327690, 5, 1, 327691, 5, 1, 327692, 5, 1, 327693, 5, 1, 327694, 5, 1, 327695, 5, 1, 327696, 5, 2, 458744, 5, 0, 458745, 5, 1, 458746, 5, 1, 458747, 5, 1, 458748, 5, 1, 458749, 5, 1, 458750, 5, 1, 458751, 5, 1, 393216, 5, 1, 393217, 5, 1, 393218, 5, 1, 393219, 5, 1, 393220, 5, 1, 393221, 5, 1, 393222, 5, 1, 393223, 5, 1, 393224, 5, 1, 393225, 5, 1, 393226, 5, 1, 393227, 5, 1, 393228, 5, 1, 393229, 5, 1, 393230, 5, 1, 393231, 5, 1, 393232, 5, 2, 524275, 1, 0, 524276, 1, 0, 524277, 1, 0, 524278, 1, 0, 524280, 5, 0, 524281, 5, 1, 524282, 5, 1, 524283, 5, 1, 524284, 5, 1, 524285, 5, 1, 524286, 5, 1, 524287, 5, 1, 458752, 5, 1, 458753, 5, 1, 458754, 5, 1, 458755, 5, 1, 458756, 5, 1, 458757, 5, 1, 458758, 5, 1, 458759, 5, 1, 458760, 5, 1, 458761, 5, 1, 458762, 5, 1, 458763, 5, 1, 458764, 5, 1, 458765, 5, 1, 458766, 5, 1, 458767, 5, 1, 458768, 5, 2, 589816, 5, 65536, 589817, 5, 65537, 589818, 5, 65537, 589819, 5, 65537, 589820, 5, 65537, 589821, 5, 65537, 589822, 5, 65537, 589823, 5, 65537, 524288, 5, 65537, 524289, 5, 65537, 524290, 5, 65537, 524291, 5, 65537, 524292, 5, 65537, 524293, 5, 65537, 524294, 5, 65537, 524295, 5, 65537, 524296, 5, 65537, 524297, 5, 65537, 524298, 5, 65537, 524299, 5, 65537, 524300, 5, 65537, 524301, 5, 65537, 524302, 5, 65537, 524303, 5, 65537, 524304, 5, 65538 )

[node name="Box" type="RigidBody2D" parent="."]
position = Vector2( -45, 9 )
collision_layer = 7
mass = 5.0
physics_material_override = SubResource( 1 )
script = ExtResource( 3 )

[node name="CollisionShape2D" type="CollisionShape2D" parent="Box"]
shape = SubResource( 2 )
__meta__ = {
"_edit_lock_": true
}

[node name="Sprite" type="Sprite" parent="Box"]
texture = ExtResource( 6 )
__meta__ = {
"_edit_lock_": true
}

[node name="Door1" parent="." instance=ExtResource( 8 )]
inputs = [ NodePath("../Button") ]
operator = 1

[node name="Button" parent="." instance=ExtResource( 5 )]
position = Vector2( 99, 9 )

[node name="Goal" type="Area2D" parent="."]
position = Vector2( 207, 0 )

[node name="CollisionShape2D" type="CollisionShape2D" parent="Goal"]
shape = SubResource( 3 )
__meta__ = {
"_edit_lock_": true
}

[node name="GoalParticles" type="Particles2D" parent="Goal"]
position = Vector2( -6.00677, -15.1838 )
emitting = false
amount = 100
explosiveness = 0.45
process_material = SubResource( 4 )

[connection signal="body_entered" from="Goal" to="." method="_on_goal_body_entered"]
